[
  {"code":"0042","name":"ТОО ГРАНД АБ ГРУПП"},
  {"code":"0043","name":"ТОО ТЕМІРЖОЛСУ-СЕРВИС"},
  {"code":"0046","name":"ТОО САРЫ-АРКА КОМПАНИ"},
  {"code":"0049","name":"ТОО NOMADAS"}, 
  {"code":"0053","name":"ТОО ТУРКСИБ АСТАНА"},
  {"code":"0077","name":"ТОО АЗИЯЭКСПРЕСССЕРВИС"},
  {"code":"0000073","name":"АО ВОЕНИЗИРОВАННАЯ ЖЕЛЕЗНОДОРОЖНАЯ ОХРАНА"},
  {"code":"0000090","name":"АО КАЗАХСКАЯ АКАДЕМИЯ ТРАНСПОРТА И КОММУНИКАЦИЙ ИМЕНИ М. ТЫНЫШПАЕВА"},
  {"code":"0003431","name":"ТОО KTZE-KHORGOS GATEWAY"},
  {"code":"0011310","name":"ТОО TEMIR ZHOL ELECTRIFICATION (ТЕМИР ЖОЛ ЭЛЕКТРИФИКЕЙШН)"},
  {"code":"0011919","name":"АО УПРАВЛЯЮЩАЯ КОМПАНИЯ СПЕЦИАЛЬНОЙ ЭКОНОМИЧЕСКОЙ ЗОНЫ ХОРГОС - ВОСТОЧНЫЕ ВОРОТА"},
  {"code":"0012949","name":"АО РЕМЛОКОМОТИВ"},
  {"code":"0026","name":"АО ПАССАЖИРСКИЕ ПЕРЕВОЗКИ"},
  {"code":"0100","name":"ТОО ЕСИЛЬ-ЛОКОМОТИВ"},
  {"code":"0108","name":"ТОО S.G.M.GROUP"},
  {"code":"0127","name":"ТОО KTZ EXPRESS SHIPPING"},
  {"code":"0132","name":"ТОО AIRPORT MANAGEMENT GROUP"},
  {"code":"0234","name":"ТОО ASMADIN PROJECT"},
  {"code":"0251","name":"ТОО АРАЙ ТРАНС KZ"},
  {"code":"0301144","name":"ТОО ШЫМКЕНТЛОКОМОТИВСЕРВИС"},
  {"code":"1018764","name":"ТОО РЕМОНТНАЯ КОРПОРАЦИЯ ?АМ?ОР"},
  {"code":"1018789","name":"ТОО ТЕМІРЖОЛСУ-ШУ"},
  {"code":"4337734","name":"ТОО ТЕМИРЖОЛЖЫЛУ-АТЫРАУ"},
  {"code":"4338005","name":"ТОО ТЕМIРЖОЛСУ-ПАВЛОДАР"},
  {"code":"4357897","name":"ТОО ЗЕРГЕР-СБ"},
  {"code":"4363358","name":"ТОО ТЕМІРЖОЛСУ-АЛМАТЫ"},
  {"code":"4364318","name":"ТОО ТЕМИРЖОЛСУ-АКТОБЕ"},
  {"code":"4372811","name":"ТОО ТЕМІРЖОЛСУ-КОКШЕТАУ"},
  {"code":"4377007","name":"ТОО РАУАН-БУРАБАЙ"},
  {"code":"4380185","name":"ТОО ТЕМIРЖОЛСУ-КАРАГАНДЫ"},
  {"code":"4384353","name":"АО ПРИГОРОДНЫЕ ПЕРЕВОЗКИ"},
  {"code":"4388067","name":"ТОО БАС-БАЛХАШ 2004"},
  {"code":"4395733","name":"ТОО МАК-ЭКИБАСТУЗ"},
  {"code":"4431950","name":"АО КАЗТЕМIРТРАНС"},
  {"code":"4437196","name":"ТОО ШЫМКЕНТ РЕМ СЕРВИС"},
  {"code":"4456181","name":"ТОО ТЕМИРЖОЛСУ-АЯГОЗ"},
  {"code":"4471170","name":"АО ЦЕНТР ТРАНСПОРТНЫХ УСЛУГ"},
  {"code":"4480700","name":"ТОО ТЕМИРЖОЛСУ - АРЫС"},
  {"code":"4487382","name":"ТОО БОРОВСКОЕ ЛОКОМОТИВО-ВАГОНОРЕМОНТНОЕ ДЕПО"},
  {"code":"4533383","name":"ТОО ТЕМИРЖОЛСУ-МАНГИСТАУ"},
  {"code":"4534025","name":"ТОО ТЕМИРЖОЛСУ-КЗЫЛ-ОРДА"},
  {"code":"4568167","name":"АО ЛОКОМОТИВ КУРАСТЫРУ ЗАУЫТЫ"},
  {"code":"4571733","name":"ТОО ЛЕСОЗАЩИТА"},
  {"code":"4580970","name":"ТОО КАЗАХСТАНСКАЯ ВАГОНОСТРОИТЕЛЬНАЯ КОМПАНИЯ"},
  {"code":"4640433","name":"АО ТЕМIРЖОЛСУ"},
  {"code":"4643522","name":"ТОО ЭЛЕКТРОВОЗ КУРАСТЫРУ ЗАУЫТЫ"},
  {"code":"4644397","name":"ТОО ТЕМИРЖОЛСУ-КОСТАНАЙ"},
  {"code":"0040","name":"ТОО ARLAN-TRANS-ASTANA"},
  {"code":"0053","name":"ТОО ТУРКСИБ АСТАНА"},
  {"code":"1018764","name":"ТОО РЕМОНТНАЯ КОРПОРАЦИЯ ?АМ?ОР"},
  {"code":"1018789","name":"ТОО ТЕМІРЖОЛСУ-ШУ"},
  {"code":"4337734","name":"ТОО ТЕМИРЖОЛЖЫЛУ-АТЫРАУ"}]
